%YAML 1.1
%TAG !u! tag:unity3d.com,2011:
--- !u!74 &7400000
AnimationClip:
  m_ObjectHideFlags: 0
  m_CorrespondingSourceObject: {fileID: 0}
  m_PrefabInternal: {fileID: 0}
  m_Name: Player_RaiseBlock
  serializedVersion: 6
  m_Legacy: 0
  m_Compressed: 0
  m_UseHighQualityCurve: 1
  m_RotationCurves: []
  m_CompressedRotationCurves: []
  m_EulerCurves: []
  m_PositionCurves: []
  m_ScaleCurves: []
  m_FloatCurves: []
  m_PPtrCurves:
  - curve:
    - time: 0
      value: {fileID: 21300000, guid: bc8a37924c20568439d372f6d31e7372, type: 3}
    - time: 0.083333336
      value: {fileID: 21300000, guid: 5b523ef77aeab9e47aa3020cff717faf, type: 3}
    - time: 0.16666667
      value: {fileID: 21300000, guid: 9eac63d46b81bdc44add2d51cdc4b8a4, type: 3}
    - time: 0.25
      value: {fileID: 21300000, guid: 9a5ab24fba03fbf4d9463d03bf53b75e, type: 3}
    - time: 0.33333334
      value: {fileID: 21300000, guid: 20ac094f0101bbe4da53f6c64ae0f69f, type: 3}
    - time: 0.41666666
      value: {fileID: 21300000, guid: 32ca931f8506efb42b27eedc113ebd11, type: 3}
    attribute: m_Sprite
    path: 
    classID: 212
    script: {fileID: 0}
  m_SampleRate: 12
  m_WrapMode: 0
  m_Bounds:
    m_Center: {x: 0, y: 0, z: 0}
    m_Extent: {x: 0, y: 0, z: 0}
  m_ClipBindingConstant:
    genericBindings:
    - serializedVersion: 2
      path: 0
      attribute: 0
      script: {fileID: 0}
      typeID: 212
      customType: 23
      isPPtrCurve: 1
    pptrCurveMapping:
    - {fileID: 21300000, guid: bc8a37924c20568439d372f6d31e7372, type: 3}
    - {fileID: 21300000, guid: 5b523ef77aeab9e47aa3020cff717faf, type: 3}
    - {fileID: 21300000, guid: 9eac63d46b81bdc44add2d51cdc4b8a4, type: 3}
    - {fileID: 21300000, guid: 9a5ab24fba03fbf4d9463d03bf53b75e, type: 3}
    - {fileID: 21300000, guid: 20ac094f0101bbe4da53f6c64ae0f69f, type: 3}
    - {fileID: 21300000, guid: 32ca931f8506efb42b27eedc113ebd11, type: 3}
  m_AnimationClipSettings:
    serializedVersion: 2
    m_AdditiveReferencePoseClip: {fileID: 0}
    m_AdditiveReferencePoseTime: 0
    m_StartTime: 0
    m_StopTime: 0.5
    m_OrientationOffsetY: 0
    m_Level: 0
    m_CycleOffset: 0
    m_HasAdditiveReferencePose: 0
    m_LoopTime: 1
    m_LoopBlend: 0
    m_LoopBlendOrientation: 0
    m_LoopBlendPositionY: 0
    m_LoopBlendPositionXZ: 0
    m_KeepOriginalOrientation: 0
    m_KeepOriginalPositionY: 1
    m_KeepOriginalPositionXZ: 0
    m_HeightFromFeet: 0
    m_Mirror: 0
  m_EditorCurves: []
  m_EulerEditorCurves: []
  m_HasGenericRootTransform: 0
  m_HasMotionFloatCurves: 0
  m_GenerateMotionCurves: 0
  m_Events: []
