%YAML 1.1
%TAG !u! tag:unity3d.com,2011:
--- !u!74 &7400000
AnimationClip:
  m_ObjectHideFlags: 0
  m_CorrespondingSourceObject: {fileID: 0}
  m_PrefabInternal: {fileID: 0}
  m_Name: SlayerBlock
  serializedVersion: 6
  m_Legacy: 0
  m_Compressed: 0
  m_UseHighQualityCurve: 1
  m_RotationCurves: []
  m_CompressedRotationCurves: []
  m_EulerCurves: []
  m_PositionCurves: []
  m_ScaleCurves: []
  m_FloatCurves: []
  m_PPtrCurves:
  - curve:
    - time: 0
      value: {fileID: 21300000, guid: c9d95174d3e867a448f48919b8be5082, type: 3}
    - time: 0.083333336
      value: {fileID: 21300000, guid: 1b3f993eeaf27db4f994b66a6af9bbef, type: 3}
    - time: 0.16666667
      value: {fileID: 21300000, guid: fb34504561fbdcf439a6177c192e3adf, type: 3}
    - time: 0.25
      value: {fileID: 21300000, guid: bc96dae2a45db3541a526e87ca4ca7bf, type: 3}
    - time: 0.33333334
      value: {fileID: 21300000, guid: 95841fc206787504aadf4a090a5552e4, type: 3}
    - time: 0.41666666
      value: {fileID: 21300000, guid: cd47f790ba1021e42bc6dfe75ba9988d, type: 3}
    - time: 0.5
      value: {fileID: 21300000, guid: 013d89edc5406b64cbb4fb4f5fda622d, type: 3}
    - time: 0.5833333
      value: {fileID: 21300000, guid: e31c13cbd12670a48b895b66fa8d780b, type: 3}
    - time: 0.6666667
      value: {fileID: 21300000, guid: 973a25b0745a4ff468d06744f5afab98, type: 3}
    - time: 0.75
      value: {fileID: 21300000, guid: 52dc3e8a92a8721489b2dac93731f7cb, type: 3}
    - time: 0.8333333
      value: {fileID: 21300000, guid: 343173aabd5231648be13ecf5d3c8a0c, type: 3}
    - time: 0.9166667
      value: {fileID: 21300000, guid: 0a22140ff5b8c0c438e7501045d85e3d, type: 3}
    attribute: m_Sprite
    path: 
    classID: 212
    script: {fileID: 0}
  m_SampleRate: 12
  m_WrapMode: 0
  m_Bounds:
    m_Center: {x: 0, y: 0, z: 0}
    m_Extent: {x: 0, y: 0, z: 0}
  m_ClipBindingConstant:
    genericBindings:
    - serializedVersion: 2
      path: 0
      attribute: 0
      script: {fileID: 0}
      typeID: 212
      customType: 23
      isPPtrCurve: 1
    pptrCurveMapping:
    - {fileID: 21300000, guid: c9d95174d3e867a448f48919b8be5082, type: 3}
    - {fileID: 21300000, guid: 1b3f993eeaf27db4f994b66a6af9bbef, type: 3}
    - {fileID: 21300000, guid: fb34504561fbdcf439a6177c192e3adf, type: 3}
    - {fileID: 21300000, guid: bc96dae2a45db3541a526e87ca4ca7bf, type: 3}
    - {fileID: 21300000, guid: 95841fc206787504aadf4a090a5552e4, type: 3}
    - {fileID: 21300000, guid: cd47f790ba1021e42bc6dfe75ba9988d, type: 3}
    - {fileID: 21300000, guid: 013d89edc5406b64cbb4fb4f5fda622d, type: 3}
    - {fileID: 21300000, guid: e31c13cbd12670a48b895b66fa8d780b, type: 3}
    - {fileID: 21300000, guid: 973a25b0745a4ff468d06744f5afab98, type: 3}
    - {fileID: 21300000, guid: 52dc3e8a92a8721489b2dac93731f7cb, type: 3}
    - {fileID: 21300000, guid: 343173aabd5231648be13ecf5d3c8a0c, type: 3}
    - {fileID: 21300000, guid: 0a22140ff5b8c0c438e7501045d85e3d, type: 3}
  m_AnimationClipSettings:
    serializedVersion: 2
    m_AdditiveReferencePoseClip: {fileID: 0}
    m_AdditiveReferencePoseTime: 0
    m_StartTime: 0
    m_StopTime: 1
    m_OrientationOffsetY: 0
    m_Level: 0
    m_CycleOffset: 0
    m_HasAdditiveReferencePose: 0
    m_LoopTime: 1
    m_LoopBlend: 0
    m_LoopBlendOrientation: 0
    m_LoopBlendPositionY: 0
    m_LoopBlendPositionXZ: 0
    m_KeepOriginalOrientation: 0
    m_KeepOriginalPositionY: 1
    m_KeepOriginalPositionXZ: 0
    m_HeightFromFeet: 0
    m_Mirror: 0
  m_EditorCurves: []
  m_EulerEditorCurves: []
  m_HasGenericRootTransform: 0
  m_HasMotionFloatCurves: 0
  m_GenerateMotionCurves: 0
  m_Events: []
